QuestaSim/Boards2.log
Reading C:/Mentor/QuestaSim64/10.2c/tcl/vsim/pref.tcl 

# 10.2c

# vsim -do {run -all; quit} -c -vopt json.Boards2 
# ** Note: (vsim-3813) Design is being optimized due to module recompilation...
# 
# //  Questa Sim-64
# //  Version 10.2c Unknown Platform Jul 19 2013
# //
# //  Copyright 1991-2013 Mentor Graphics Corporation
# //  All Rights Reserved.
# //
# //  THIS WORK CONTAINS TRADE SECRET AND PROPRIETARY INFORMATION
# //  WHICH IS THE PROPERTY OF MENTOR GRAPHICS CORPORATION OR ITS
# //  LICENSORS AND IS SUBJECT TO LICENSE TERMS.
# //
# Loading std.standard
# Loading std.textio(body)
# Loading ieee.std_logic_1164(body)
# Loading ieee.numeric_std(body)
# Loading work.json(body)
# Loading work.boards2(rtl)#1
# run -all 
# ** Note: jsonGetString(..., 'DE4/Ethernet/2/PHY_ManagementInterface'): MDIO
#    Time: 0 ns  Iteration: 0  Instance: /boards2
# ** Note: jsonGetString(..., 'KC705/IIC/0/Devices/1/Type'):             Si570
#    Time: 0 ns  Iteration: 0  Instance: /boards2
# ** Note: 
# Index: depth=319
# 0: index=0  child=1  next=0  start=0  end=0  type=elem_object
# 1: index=1  child=2  next=9  start=1  end=7  type=elem_key
# 2: index=2  child=3  next=0  start=0  end=0  type=elem_object
# 3: index=3  child=4  next=5  start=8  end=17  type=elem_key
# 4: index=4  child=0  next=0  start=18  end=29  type=elem_string
# 5: index=5  child=6  next=7  start=30  end=33  type=elem_key
# 6: index=6  child=0  next=0  start=0  end=0  type=elem_null
# 7: index=7  child=8  next=0  start=34  end=41  type=elem_key
# 8: index=8  child=0  next=0  start=0  end=0  type=elem_null
# 9: index=9  child=10  next=17  start=42  end=49  type=elem_key
# 10: index=10  child=11  next=0  start=0  end=0  type=elem_object
# 11: index=11  child=12  next=13  start=50  end=59  type=elem_key
# 12: index=12  child=0  next=0  start=60  end=72  type=elem_string
# 13: index=13  child=14  next=15  start=73  end=76  type=elem_key
# 14: index=14  child=0  next=0  start=0  end=0  type=elem_null
# 15: index=15  child=16  next=0  start=77  end=84  type=elem_key
# 16: index=16  child=0  next=0  start=0  end=0  type=elem_null
# 17: index=17  child=18  next=25  start=85  end=92  type=elem_key
# 18: index=18  child=19  next=0  start=0  end=0  type=elem_object
# 19: index=19  child=20  next=21  start=93  end=102  type=elem_key
# 20: index=20  child=0  next=0  start=103  end=115  type=elem_string
# 21: index=21  child=22  next=23  start=116  end=119  type=elem_key
# 22: index=22  child=0  next=0  start=0  end=0  type=elem_null
# 23: index=23  child=24  next=0  start=120  end=127  type=elem_key
# 24: index=24  child=0  next=0  start=0  end=0  type=elem_null
# 25: index=25  child=26  next=33  start=128  end=136  type=elem_key
# 26: index=26  child=27  next=0  start=0  end=0  type=elem_object
# 27: index=27  child=28  next=29  start=137  end=146  type=elem_key
# 28: index=28  child=0  next=0  start=147  end=160  type=elem_string
# 29: index=29  child=30  next=31  start=161  end=164  type=elem_key
# 30: index=30  child=0  next=0  start=0  end=0  type=elem_null
# 31: index=31  child=32  next=0  start=165  end=172  type=elem_key
# 32: index=32  child=0  next=0  start=0  end=0  type=elem_null
# 33: index=33  child=34  next=62  start=173  end=177  type=elem_key
# 34: index=34  child=35  next=0  start=0  end=0  type=elem_object
# 35: index=35  child=36  next=37  start=178  end=187  type=elem_key
# 36: index=36  child=0  next=0  start=188  end=203  type=elem_string
# 37: index=37  child=38  next=47  start=204  end=207  type=elem_key
# 38: index=38  child=39  next=0  start=0  end=0  type=elem_object
# 39: index=39  child=40  next=41  start=208  end=212  type=elem_key
# 40: index=40  child=0  next=0  start=0  end=0  type=elem_true
# 41: index=41  child=42  next=43  start=213  end=223  type=elem_key
# 42: index=42  child=0  next=0  start=224  end=227  type=elem_string
# 43: index=43  child=44  next=45  start=228  end=235  type=elem_key
# 44: index=44  child=0  next=0  start=236  end=244  type=elem_string
# 45: index=45  child=46  next=0  start=245  end=256  type=elem_key
# 46: index=46  child=0  next=0  start=257  end=265  type=elem_string
# 47: index=47  child=48  next=0  start=266  end=273  type=elem_key
# 48: index=48  child=49  next=0  start=0  end=0  type=elem_list
# 49: index=49  child=50  next=0  start=0  end=0  type=elem_object
# 50: index=50  child=51  next=52  start=274  end=280  type=elem_key
# 51: index=51  child=0  next=0  start=281  end=284  type=elem_string
# 52: index=52  child=53  next=54  start=285  end=300  type=elem_key
# 53: index=53  child=0  next=0  start=301  end=304  type=elem_string
# 54: index=54  child=55  next=56  start=305  end=314  type=elem_key
# 55: index=55  child=0  next=0  start=315  end=328  type=elem_string
# 56: index=56  child=57  next=58  start=329  end=345  type=elem_key
# 57: index=57  child=0  next=0  start=346  end=349  type=elem_string
# 58: index=58  child=59  next=60  start=350  end=366  type=elem_key
# 59: index=59  child=0  next=0  start=367  end=370  type=elem_string
# 60: index=60  child=61  next=0  start=371  end=393  type=elem_key
# 61: index=61  child=0  next=0  start=394  end=397  type=elem_string
# 62: index=62  child=63  next=110  start=398  end=402  type=elem_key
# 63: index=63  child=64  next=0  start=0  end=0  type=elem_object
# 64: index=64  child=65  next=66  start=403  end=412  type=elem_key
# 65: index=65  child=0  next=0  start=413  end=429  type=elem_string
# 66: index=66  child=67  next=76  start=430  end=433  type=elem_key
# 67: index=67  child=68  next=0  start=0  end=0  type=elem_object
# 68: index=68  child=69  next=70  start=434  end=438  type=elem_key
# 69: index=69  child=0  next=0  start=0  end=0  type=elem_true
# 70: index=70  child=71  next=72  start=439  end=449  type=elem_key
# 71: index=71  child=0  next=0  start=450  end=453  type=elem_string
# 72: index=72  child=73  next=74  start=454  end=461  type=elem_key
# 73: index=73  child=0  next=0  start=462  end=470  type=elem_string
# 74: index=74  child=75  next=0  start=471  end=482  type=elem_key
# 75: index=75  child=0  next=0  start=483  end=491  type=elem_string
# 76: index=76  child=77  next=91  start=492  end=499  type=elem_key
# 77: index=77  child=78  next=0  start=0  end=0  type=elem_list
# 78: index=78  child=79  next=0  start=0  end=0  type=elem_object
# 79: index=79  child=80  next=81  start=500  end=506  type=elem_key
# 80: index=80  child=0  next=0  start=507  end=510  type=elem_string
# 81: index=81  child=82  next=83  start=511  end=526  type=elem_key
# 82: index=82  child=0  next=0  start=527  end=530  type=elem_string
# 83: index=83  child=84  next=85  start=531  end=540  type=elem_key
# 84: index=84  child=0  next=0  start=541  end=554  type=elem_string
# 85: index=85  child=86  next=87  start=555  end=571  type=elem_key
# 86: index=86  child=0  next=0  start=572  end=575  type=elem_string
# 87: index=87  child=88  next=89  start=576  end=592  type=elem_key
# 88: index=88  child=0  next=0  start=593  end=596  type=elem_string
# 89: index=89  child=90  next=0  start=597  end=619  type=elem_key
# 90: index=90  child=0  next=0  start=620  end=623  type=elem_string
# 91: index=91  child=92  next=0  start=624  end=626  type=elem_key
# 92: index=92  child=93  next=0  start=0  end=0  type=elem_list
# 93: index=93  child=94  next=0  start=0  end=0  type=elem_object
# 94: index=94  child=95  next=96  start=627  end=630  type=elem_key
# 95: index=95  child=0  next=0  start=631  end=636  type=elem_string
# 96: index=96  child=97  next=98  start=637  end=643  type=elem_key
# 97: index=97  child=0  next=0  start=644  end=647  type=elem_string
# 98: index=98  child=99  next=0  start=648  end=654  type=elem_key
# 99: index=99  child=100  next=0  start=0  end=0  type=elem_list
# 100: index=100  child=101  next=105  start=0  end=0  type=elem_object
# 101: index=101  child=102  next=103  start=655  end=658  type=elem_key
# 102: index=102  child=0  next=0  start=659  end=674  type=elem_string
# 103: index=103  child=104  next=0  start=675  end=681  type=elem_key
# 104: index=104  child=0  next=0  start=682  end=685  type=elem_string
# 105: index=105  child=106  next=0  start=0  end=0  type=elem_object
# 106: index=106  child=107  next=108  start=686  end=689  type=elem_key
# 107: index=107  child=0  next=0  start=690  end=694  type=elem_string
# 108: index=108  child=109  next=0  start=695  end=701  type=elem_key
# 109: index=109  child=0  next=0  start=702  end=705  type=elem_string
# 110: index=110  child=111  next=139  start=706  end=710  type=elem_key
# 111: index=111  child=112  next=0  start=0  end=0  type=elem_object
# 112: index=112  child=113  next=114  start=711  end=720  type=elem_key
# 113: index=113  child=0  next=0  start=721  end=737  type=elem_string
# 114: index=114  child=115  next=124  start=738  end=741  type=elem_key
# 115: index=115  child=116  next=0  start=0  end=0  type=elem_object
# 116: index=116  child=117  next=118  start=742  end=746  type=elem_key
# 117: index=117  child=0  next=0  start=0  end=0  type=elem_false
# 118: index=118  child=119  next=120  start=747  end=757  type=elem_key
# 119: index=119  child=0  next=0  start=758  end=761  type=elem_string
# 120: index=120  child=121  next=122  start=762  end=769  type=elem_key
# 121: index=121  child=0  next=0  start=770  end=778  type=elem_string
# 122: index=122  child=123  next=0  start=779  end=790  type=elem_key
# 123: index=123  child=0  next=0  start=791  end=799  type=elem_string
# 124: index=124  child=125  next=0  start=800  end=807  type=elem_key
# 125: index=125  child=126  next=0  start=0  end=0  type=elem_list
# 126: index=126  child=127  next=0  start=0  end=0  type=elem_object
# 127: index=127  child=128  next=129  start=808  end=814  type=elem_key
# 128: index=128  child=0  next=0  start=815  end=818  type=elem_string
# 129: index=129  child=130  next=131  start=819  end=834  type=elem_key
# 130: index=130  child=0  next=0  start=835  end=838  type=elem_string
# 131: index=131  child=132  next=133  start=839  end=848  type=elem_key
# 132: index=132  child=0  next=0  start=849  end=862  type=elem_string
# 133: index=133  child=134  next=135  start=863  end=879  type=elem_key
# 134: index=134  child=0  next=0  start=880  end=883  type=elem_string
# 135: index=135  child=136  next=137  start=884  end=900  type=elem_key
# 136: index=136  child=0  next=0  start=901  end=904  type=elem_string
# 137: index=137  child=138  next=0  start=905  end=927  type=elem_key
# 138: index=138  child=0  next=0  start=928  end=931  type=elem_string
# 139: index=139  child=140  next=168  start=932  end=936  type=elem_key
# 140: index=140  child=141  next=0  start=0  end=0  type=elem_object
# 141: index=141  child=142  next=143  start=937  end=946  type=elem_key
# 142: index=142  child=0  next=0  start=947  end=964  type=elem_string
# 143: index=143  child=144  next=153  start=965  end=968  type=elem_key
# 144: index=144  child=145  next=0  start=0  end=0  type=elem_object
# 145: index=145  child=146  next=147  start=969  end=973  type=elem_key
# 146: index=146  child=0  next=0  start=0  end=0  type=elem_false
# 147: index=147  child=148  next=149  start=974  end=984  type=elem_key
# 148: index=148  child=0  next=0  start=985  end=988  type=elem_string
# 149: index=149  child=150  next=151  start=989  end=996  type=elem_key
# 150: index=150  child=0  next=0  start=997  end=1005  type=elem_string
# 151: index=151  child=152  next=0  start=1006  end=1017  type=elem_key
# 152: index=152  child=0  next=0  start=1018  end=1026  type=elem_string
# 153: index=153  child=154  next=0  start=1027  end=1034  type=elem_key
# 154: index=154  child=155  next=0  start=0  end=0  type=elem_list
# 155: index=155  child=156  next=0  start=0  end=0  type=elem_object
# 156: index=156  child=157  next=158  start=1035  end=1041  type=elem_key
# 157: index=157  child=0  next=0  start=1042  end=1045  type=elem_string
# 158: index=158  child=159  next=160  start=1046  end=1061  type=elem_key
# 159: index=159  child=0  next=0  start=1062  end=1065  type=elem_string
# 160: index=160  child=161  next=162  start=1066  end=1075  type=elem_key
# 161: index=161  child=0  next=0  start=1076  end=1089  type=elem_string
# 162: index=162  child=163  next=164  start=1090  end=1106  type=elem_key
# 163: index=163  child=0  next=0  start=1107  end=1110  type=elem_string
# 164: index=164  child=165  next=166  start=1111  end=1127  type=elem_key
# 165: index=165  child=0  next=0  start=1128  end=1131  type=elem_string
# 166: index=166  child=167  next=0  start=1132  end=1154  type=elem_key
# 167: index=167  child=0  next=0  start=1155  end=1158  type=elem_string
# 168: index=168  child=169  next=211  start=1159  end=1163  type=elem_key
# 169: index=169  child=170  next=0  start=0  end=0  type=elem_object
# 170: index=170  child=171  next=172  start=1164  end=1173  type=elem_key
# 171: index=171  child=0  next=0  start=1174  end=1192  type=elem_string
# 172: index=172  child=173  next=182  start=1193  end=1196  type=elem_key
# 173: index=173  child=174  next=0  start=0  end=0  type=elem_object
# 174: index=174  child=175  next=176  start=1197  end=1201  type=elem_key
# 175: index=175  child=0  next=0  start=0  end=0  type=elem_true
# 176: index=176  child=177  next=178  start=1202  end=1212  type=elem_key
# 177: index=177  child=0  next=0  start=1213  end=1216  type=elem_string
# 178: index=178  child=179  next=180  start=1217  end=1224  type=elem_key
# 179: index=179  child=0  next=0  start=1225  end=1233  type=elem_string
# 180: index=180  child=181  next=0  start=1234  end=1245  type=elem_key
# 181: index=181  child=0  next=0  start=1246  end=1254  type=elem_string
# 182: index=182  child=183  next=197  start=1255  end=1262  type=elem_key
# 183: index=183  child=184  next=0  start=0  end=0  type=elem_list
# 184: index=184  child=185  next=0  start=0  end=0  type=elem_object
# 185: index=185  child=186  next=187  start=1263  end=1269  type=elem_key
# 186: index=186  child=0  next=0  start=1270  end=1273  type=elem_string
# 187: index=187  child=188  next=189  start=1274  end=1289  type=elem_key
# 188: index=188  child=0  next=0  start=1290  end=1293  type=elem_string
# 189: index=189  child=190  next=191  start=1294  end=1303  type=elem_key
# 190: index=190  child=0  next=0  start=1304  end=1317  type=elem_string
# 191: index=191  child=192  next=193  start=1318  end=1334  type=elem_key
# 192: index=192  child=0  next=0  start=1335  end=1338  type=elem_string
# 193: index=193  child=194  next=195  start=1339  end=1355  type=elem_key
# 194: index=194  child=0  next=0  start=1356  end=1360  type=elem_string
# 195: index=195  child=196  next=0  start=1361  end=1383  type=elem_key
# 196: index=196  child=0  next=0  start=1384  end=1387  type=elem_string
# 197: index=197  child=198  next=0  start=1388  end=1390  type=elem_key
# 198: index=198  child=199  next=0  start=0  end=0  type=elem_list
# 199: index=199  child=200  next=0  start=0  end=0  type=elem_object
# 200: index=200  child=201  next=202  start=1391  end=1394  type=elem_key
# 201: index=201  child=0  next=0  start=1395  end=1400  type=elem_string
# 202: index=202  child=203  next=204  start=1401  end=1403  type=elem_key
# 203: index=203  child=0  next=0  start=1404  end=1407  type=elem_string
# 204: index=204  child=205  next=0  start=1408  end=1414  type=elem_key
# 205: index=205  child=206  next=0  start=0  end=0  type=elem_list
# 206: index=206  child=207  next=0  start=0  end=0  type=elem_object
# 207: index=207  child=208  next=209  start=1415  end=1418  type=elem_key
# 208: index=208  child=0  next=0  start=1419  end=1423  type=elem_string
# 209: index=209  child=210  next=0  start=1424  end=1430  type=elem_key
# 210: index=210  child=0  next=0  start=1431  end=1434  type=elem_string
# 211: index=211  child=212  next=219  start=1435  end=1442  type=elem_key
# 212: index=212  child=213  next=0  start=0  end=0  type=elem_object
# 213: index=213  child=214  next=215  start=1443  end=1452  type=elem_key
# 214: index=214  child=0  next=0  start=1453  end=1467  type=elem_string
# 215: index=215  child=216  next=217  start=1468  end=1471  type=elem_key
# 216: index=216  child=0  next=0  start=0  end=0  type=elem_null
# 217: index=217  child=218  next=0  start=1472  end=1479  type=elem_key
# 218: index=218  child=0  next=0  start=0  end=0  type=elem_null
# 219: index=219  child=220  next=227  start=1480  end=1482  type=elem_key
# 220: index=220  child=221  next=0  start=0  end=0  type=elem_object
# 221: index=221  child=222  next=223  start=1483  end=1492  type=elem_key
# 222: index=222  child=0  next=0  start=1493  end=1502  type=elem_string
# 223: index=223  child=224  next=225  start=1503  end=1506  type=elem_key
# 224: index=224  child=0  next=0  start=0  end=0  type=elem_null
# 225: index=225  child=226  next=0  start=1507  end=1514  type=elem_key
# 226: index=226  child=0  next=0  start=0  end=0  type=elem_null
# 227: index=227  child=228  next=235  start=1515  end=1520  type=elem_key
# 228: index=228  child=229  next=0  start=0  end=0  type=elem_object
# 229: index=229  child=230  next=231  start=1521  end=1530  type=elem_key
# 230: index=230  child=0  next=0  start=1531  end=1546  type=elem_string
# 231: index=231  child=232  next=233  start=1547  end=1550  type=elem_key
# 232: index=232  child=0  next=0  start=0  end=0  type=elem_null
# 233: index=233  child=234  next=0  start=1551  end=1558  type=elem_key
# 234: index=234  child=0  next=0  start=0  end=0  type=elem_null
# 235: index=235  child=236  next=303  start=1559  end=1561  type=elem_key
# 236: index=236  child=237  next=0  start=0  end=0  type=elem_object
# 237: index=237  child=238  next=239  start=1562  end=1571  type=elem_key
# 238: index=238  child=0  next=0  start=1572  end=1586  type=elem_string
# 239: index=239  child=240  next=249  start=1587  end=1590  type=elem_key
# 240: index=240  child=241  next=0  start=0  end=0  type=elem_object
# 241: index=241  child=242  next=243  start=1591  end=1595  type=elem_key
# 242: index=242  child=0  next=0  start=0  end=0  type=elem_false
# 243: index=243  child=244  next=245  start=1596  end=1606  type=elem_key
# 244: index=244  child=0  next=0  start=1607  end=1610  type=elem_string
# 245: index=245  child=246  next=247  start=1611  end=1618  type=elem_key
# 246: index=246  child=0  next=0  start=1619  end=1627  type=elem_string
# 247: index=247  child=248  next=0  start=1628  end=1639  type=elem_key
# 248: index=248  child=0  next=0  start=1640  end=1648  type=elem_string
# 249: index=249  child=250  next=0  start=1649  end=1656  type=elem_key
# 250: index=250  child=251  next=0  start=0  end=0  type=elem_list
# 251: index=251  child=252  next=264  start=0  end=0  type=elem_object
# 252: index=252  child=253  next=254  start=1657  end=1663  type=elem_key
# 253: index=253  child=0  next=0  start=1664  end=1667  type=elem_string
# 254: index=254  child=255  next=256  start=1668  end=1683  type=elem_key
# 255: index=255  child=0  next=0  start=1684  end=1687  type=elem_string
# 256: index=256  child=257  next=258  start=1688  end=1697  type=elem_key
# 257: index=257  child=0  next=0  start=1698  end=1711  type=elem_string
# 258: index=258  child=259  next=260  start=1712  end=1728  type=elem_key
# 259: index=259  child=0  next=0  start=1729  end=1732  type=elem_string
# 260: index=260  child=261  next=262  start=1733  end=1749  type=elem_key
# 261: index=261  child=0  next=0  start=1750  end=1753  type=elem_string
# 262: index=262  child=263  next=0  start=1754  end=1776  type=elem_key
# 263: index=263  child=0  next=0  start=1777  end=1780  type=elem_string
# 264: index=264  child=265  next=277  start=0  end=0  type=elem_object
# 265: index=265  child=266  next=267  start=1781  end=1787  type=elem_key
# 266: index=266  child=0  next=0  start=1788  end=1791  type=elem_string
# 267: index=267  child=268  next=269  start=1792  end=1807  type=elem_key
# 268: index=268  child=0  next=0  start=1808  end=1811  type=elem_string
# 269: index=269  child=270  next=271  start=1812  end=1821  type=elem_key
# 270: index=270  child=0  next=0  start=1822  end=1835  type=elem_string
# 271: index=271  child=272  next=273  start=1836  end=1852  type=elem_key
# 272: index=272  child=0  next=0  start=1853  end=1856  type=elem_string
# 273: index=273  child=274  next=275  start=1857  end=1873  type=elem_key
# 274: index=274  child=0  next=0  start=1874  end=1877  type=elem_string
# 275: index=275  child=276  next=0  start=1878  end=1900  type=elem_key
# 276: index=276  child=0  next=0  start=1901  end=1904  type=elem_string
# 277: index=277  child=278  next=290  start=0  end=0  type=elem_object
# 278: index=278  child=279  next=280  start=1905  end=1911  type=elem_key
# 279: index=279  child=0  next=0  start=1912  end=1915  type=elem_string
# 280: index=280  child=281  next=282  start=1916  end=1931  type=elem_key
# 281: index=281  child=0  next=0  start=1932  end=1935  type=elem_string
# 282: index=282  child=283  next=284  start=1936  end=1945  type=elem_key
# 283: index=283  child=0  next=0  start=1946  end=1959  type=elem_string
# 284: index=284  child=285  next=286  start=1960  end=1976  type=elem_key
# 285: index=285  child=0  next=0  start=1977  end=1980  type=elem_string
# 286: index=286  child=287  next=288  start=1981  end=1997  type=elem_key
# 287: index=287  child=0  next=0  start=1998  end=2001  type=elem_string
# 288: index=288  child=289  next=0  start=2002  end=2024  type=elem_key
# 289: index=289  child=0  next=0  start=2025  end=2028  type=elem_string
# 290: index=290  child=291  next=0  start=0  end=0  type=elem_object
# 291: index=291  child=292  next=293  start=2029  end=2035  type=elem_key
# 292: index=292  child=0  next=0  start=2036  end=2039  type=elem_string
# 293: index=293  child=294  next=295  start=2040  end=2055  type=elem_key
# 294: index=294  child=0  next=0  start=2056  end=2059  type=elem_string
# 295: index=295  child=296  next=297  start=2060  end=2069  type=elem_key
# 296: index=296  child=0  next=0  start=2070  end=2083  type=elem_string
# 297: index=297  child=298  next=299  start=2084  end=2100  type=elem_key
# 298: index=298  child=0  next=0  start=2101  end=2104  type=elem_string
# 299: index=299  child=300  next=301  start=2105  end=2121  type=elem_key
# 300: index=300  child=0  next=0  start=2122  end=2125  type=elem_string
# 301: index=301  child=302  next=0  start=2126  end=2148  type=elem_key
# 302: index=302  child=0  next=0  start=2149  end=2152  type=elem_string
# 303: index=303  child=304  next=311  start=2153  end=2155  type=elem_key
# 304: index=304  child=305  next=0  start=0  end=0  type=elem_object
# 305: index=305  child=306  next=307  start=2156  end=2165  type=elem_key
# 306: index=306  child=0  next=0  start=2166  end=2181  type=elem_string
# 307: index=307  child=308  next=309  start=2182  end=2185  type=elem_key
# 308: index=308  child=0  next=0  start=0  end=0  type=elem_null
# 309: index=309  child=310  next=0  start=2186  end=2193  type=elem_key
# 310: index=310  child=0  next=0  start=0  end=0  type=elem_null
# 311: index=311  child=312  next=0  start=2194  end=2199  type=elem_key
# 312: index=312  child=313  next=0  start=0  end=0  type=elem_object
# 313: index=313  child=314  next=315  start=2200  end=2209  type=elem_key
# 314: index=314  child=0  next=0  start=2210  end=2245  type=elem_string
# 315: index=315  child=316  next=317  start=2246  end=2249  type=elem_key
# 316: index=316  child=0  next=0  start=0  end=0  type=elem_null
# 317: index=317  child=318  next=0  start=2250  end=2257  type=elem_key
# 318: index=318  child=0  next=0  start=0  end=0  type=elem_null
#    Time: 0 ns  Iteration: 0  Instance: /boards2
#  quit 
